…
## 
## ℹ Use `spec()` to retrieve the full column specification for this data.
## ℹ Specify the column types or set `show_col_types = FALSE` to quiet this message.

I first checked for students with the same initials within the same class (teacher and period).

hr %>% mutate(pdinit = paste(Period, initials)) %>% 
  group_by(pdinit) %>%
  summarize(npdinit = n()) %>% arrange(-npdinit)

## # A tibble: 139 × 2
##    pdinit     npdinit
##    <chr>        <int>
##  1 Allan 6 NA      10
##  2 Allan 5 NA       7
##  3 Allan 3 NA       5
##  4 Allan 4 NA       5
##  5 Lee 8 NA         5
##  6 Ching 1 NA       4
##  7 Lee 2 NA         4
##  8 Adams 5 NA       3
##  9 Adams 6 NA       2
## 10 Lee 1 NA         2
## # … with 129 more rows
…
<img src="{{< blogdown/postref >}}index_files/figure-html/unnamed-chunk-7-2.png" width="672" />

Data grouped by Teacher and Period

Grouping data by teacher and period was one way to see if there were differences among these groups. It wasn’t obvious whether there were any differences.

dat %>% group_by(teacher, minutes) %>% 
  summarize(meanHR = mean(HR, na.rm = T),
            meanRR = mean(RR, na.rm = T)) %>%
  arrange(minutes, teacher)

## `summarise()` has grouped output by 'teacher'. You can override using the `.groups` argument.

## # A tibble: 28 × 4
## # Groups:   teacher [4]
##    teacher minutes meanHR meanRR
##    <chr>     <int>  <dbl>  <dbl>
##  1 Adams         0   70.3   20.3
##  2 Allan         0   71.2   18.4
##  3 Ching         0   72.6   18.7
##  4 Lee           0   69.6   19.2
##  5 Adams         1  116.    29.9
##  6 Allan         1  106.    31.3
##  7 Ching         1  107.    29.5
##  8 Lee           1   96.6   29.2
##  9 Adams         2  128.    31.9
## 10 Allan         2  119.    32.9
## # … with 18 more rows
…
