Justin Smoak and BABIP Trends · Dripping Data
…
##     H HR   AB  SO SF     BABIP
## 1 506 92 2256 578 13 0.2589118

This is quite a bit lower than the BABIP in those years (again around .300). Smoak is a first baseman but not a particularly portly one, so I’m not sure that it should be that low.

Smoak has played for about 6 years. How do I filter players from around the same time who have played at least 6 years and calculate their BABIP to that first 6 years? Or maybe it might be easier by cumulative AB.

Batting %>% filter(yearID > 1953) %>%
  group_by(playerID) %>%
  mutate(totalAB = sum(AB), cumAB = cumsum(AB)) %>%
  filter(totalAB >= 2256 & cumAB <3000) %>% select(playerID, yearID, H, AB, HR, SO, SF, totalAB, cumAB) %>%
  group_by(playerID) %>% summarize(totH = sum(H), totAB = sum(AB), totHR = sum(HR), totSO = sum(SO), totSF = sum(SF)) %>% 
  mutate(BABIP = (totH - totHR) / (totAB - totHR - totSO + totSF)) %>% arrange(BABIP)

## # A tibble: 1,302 × 7
##     playerID  totH totAB totHR totSO totSF     BABIP
##        <chr> <int> <int> <int> <int> <int>     <dbl>
## 1  crandde01   636  2542   117   266    24 0.2377462
## 2  hernaen01   522  2327     2   151     8 0.2383135
## 3  grosswa01   676  2906   110   448    24 0.2386172
## 4  duncada01   617  2885   109   677    18 0.2399622
## 5   kingji01   699  2918   117   401    22 0.2402973
## 6  nettlgr01   623  2560   105   326    15 0.2416045
## 7  blefacu01   699  2947   112   444    25 0.2429636
## 8  martibu01   618  2743    58   419    35 0.2433724
## 9  mcgwima01   647  2656   178   592    37 0.2438898
## 10 brinked01   551  2644    28   490    14 0.2443925
## # ... with 1,292 more rows
…
