…
## # A tibble: 1 × 1
##   `max(off_DL)`
##          <dttm>
## 1    2010-10-03

DL$off_DL[which(DL$days <0)] <- as.POSIXct(c("2010-04-20", "2010-10-03", "2010-10-03"))
DL$days[which(DL$days <0)] <- as.integer(DL$off_DL[which(DL$days <0)] - DL$on_DL[which(DL$days <0)])

Here is the summary of injury by anatomical location.

DL %>% filter(censored_right == F) %>% group_by(Location_recode) %>% 
  filter(length(days) > 2) %>% summarize(mean(days), sd(days)) 

## # A tibble: 50 × 3
##    Location_recode `mean(days)` `sd(days)`
##             <fctr>        <dbl>      <dbl>
## 1                      25.66667   7.505553
## 2        abdominal     34.73684  24.204779
## 3         achilles     37.57143  23.044153
## 4            ankle     40.39437  28.049690
## 5              arm     50.42857  50.414473
## 6             back     35.34416  31.940382
## 7           biceps     33.51351  24.271178
## 8          big toe     25.66667  11.590226
## 9             calf     31.41071  24.997292
## 10           chest     43.33333  26.159766
## # ... with 40 more rows

Here is the summary by

DL %>% filter(censored_right == F) %>% group_by(Injury_type_recode) %>% 
  filter(length(days) > 2) %>% summarize(mean(days), sd(days))

## # A tibble: 43 × 3
##    Injury_type_recode `mean(days)` `sd(days)`
##                <fctr>        <dbl>      <dbl>
## 1                         29.66667  17.953644
## 2        appendicitis     28.00000  13.341664
## 3   Avulsion fracture     42.33333  54.418134
## 4             blister     26.00000   8.625543
## 5         bone bruise     30.00000  15.924823
## 6             bruised     26.36842  18.626371
## 7            bursitis     35.00000  28.801042
## 8          concussion     23.65116  26.224716
## 9           contusion     30.00000  18.845424
## 10         discomfort     44.60000  32.249720
## # ... with 33 more rows
