…
Looking at the data there’s one year that’s an outlier (and one NA observation). The 1975 list is odd in that there are 12 defensive linemen and 7 linebackers chosen for the team. I’d guess that means they published first and second team players in this list, but it’s not clear who would have been first team and who second team.

x %>% filter(year == 1975)

## # A tibble: 54 x 7
##     year position first   last     team        poy   paper
##    <int> <fct>    <chr>   <chr>    <chr>       <chr> <fct>
##  1  1975 coach    Cal     Chai     Kamehameha  <NA>  HA   
##  2  1975 E        Casey   Kunitomo Kamehameha  <NA>  HA   
##  3  1975 E        Jim     Gesser   Kaiser      <NA>  HA   
##  4  1975 E        Ben     Apuna    Waipahu     <NA>  HA   
##  5  1975 E        Derek   Yamada   Iolani      <NA>  HA   
##  6  1975 E        Aaron   Lorenzo  Kamehameha  <NA>  HA   
##  7  1975 E        Charles Pico     St. Anthony <NA>  HA   
##  8  1975 E        David   Corbelli Hilo        <NA>  HA   
##  9  1975 T        Dayle   Turner   Kamehameha  <NA>  HA   
## 10  1975 T        Robert  Hema     Waianae     <NA>  HA   
## # ... with 44 more rows
…
## [1] 28

x <- x[-which(is.na(x$year)),]

Which School Has the Most All Stars

For a first pass I looked at the raw number of times each school was listed. This list included duplicates, for example when Mark Tuinei was selected as an all star by both the Star Bulletin and the Advertiser in 1977.

# school with most players (not deduplicated)
x %>% group_by(team) %>% 
  summarize(nplayers = n()) %>%   
  arrange(desc(nplayers))

## # A tibble: 45 x 2
##    team        nplayers
##    <chr>          <int>
##  1 Saint Louis      422
##  2 Kahuku           278
##  3 Kamehameha       174
##  4 Waianae          149
##  5 Punahou          133
##  6 Farrington       119
##  7 Leilehua          93
##  8 Iolani            89
##  9 Pac-Five          63
## 10 Castle            47
## # ... with 35 more rows

After accounting for the duplicated players, Saint Louis had the most first team players, followed by Kahuku. The third place team (Kamehameha), had fewer than half the number that Saint Louis had.

x %>% mutate(name = paste(first, last)) %>% 
  group_by(year) %>%
  distinct(name, .keep_all = T) %>%   
  group_by(team) %>%
  summarize(nplayers = n()) %>% 
  arrange(desc(nplayers))

## # A tibble: 45 x 2
##    team        nplayers
##    <chr>          <int>
##  1 Saint Louis      281
##  2 Kahuku           197
##  3 Kamehameha       129
##  4 Punahou          108
##  5 Waianae          104
##  6 Farrington        89
##  7 Iolani            71
##  8 Leilehua          69
##  9 Pac-Five          46
## 10 Mililani          41
## # ... with 35 more rows
…
Running back was surprisingly different. Farrington came out on top here.

x %>%   
  mutate(name = paste(first, last), one = 1) %>% 
  group_by(year) %>%
  distinct(name, .keep_all = T) %>% 
  group_by(position, team) %>%
  summarize(nplayers = n()) %>% 
  filter(position == "RB") %>%
  arrange(-nplayers)

## # A tibble: 21 x 3
## # Groups:   position [1]
##    position team        nplayers
##    <fct>    <chr>          <int>
##  1 RB       Farrington        16
##  2 RB       Kahuku            15
##  3 RB       Kamehameha        11
##  4 RB       Saint Louis        9
##  5 RB       Punahou            7
##  6 RB       Waianae            5
##  7 RB       Damien             4
##  8 RB       Leilehua           4
##  9 RB       Mililani           4
## 10 RB       Iolani             3
## # ... with 11 more rows

Other positions were pretty much dominated by Saint Louis, just like the regular rankings.

x %>%   
  mutate(name = paste(first, last), one = 1) %>% 
  group_by(year) %>%
  distinct(name, .keep_all = T) %>% 
  group_by(position, team) %>%
  summarize(nplayers = n()) %>% 
  filter(position == "LB") %>%
  arrange(-nplayers)

## # A tibble: 29 x 3
## # Groups:   position [1]
##    position team        nplayers
##    <fct>    <chr>          <int>
##  1 LB       Saint Louis       39
##  2 LB       Kahuku            28
##  3 LB       Waianae           17
##  4 LB       Kamehameha        15
##  5 LB       Punahou           14
##  6 LB       Farrington        12
##  7 LB       Castle             6
##  8 LB       Iolani             6
##  9 LB       Leilehua           6
## 10 LB       Damien             5
## # ... with 19 more rows
…
