…
x <- gs_read(fb)

## Accessing worksheet titled 'Sheet1'.

## Parsed with column specification:
## cols(
##   Successes = col_double()
## )

Here is what the raw data look like.

x <- tbl_df(x)
x

## # A tibble: 48 x 1
##    Successes
##        <dbl>
##  1         0
##  2         0
##  3         0
##  4         0
##  5         0
##  6         0
##  7         0
##  8         0
##  9         1
## 10         0
## # … with 38 more rows
…
