…
## Accessing worksheet titled 'Sheet1'.

## Parsed with column specification:
## cols(
##   Name = col_character(),
##   paces_per_100m = col_double()
## )

Here’s what the raw data looked like.

x <- as_tibble(x)
x

## # A tibble: 23 x 2
##    Name  paces_per_100m
##    <chr>          <dbl>
##  1 SK                87
##  2 SK                80
##  3 LL                75
##  4 LL                76
##  5 ED                68
##  6 ED                65
##  7 KF                66
##  8 KF                66
##  9 BL                55
## 10 BL                59
## # … with 13 more rows
…
