…
Which schools have the most exemptions by percentage and absolute number?

x %>% arrange(-religious)

## # A tibble: 408 x 8
##    school   type  island enrollment religious medical n_religious n_medical
##    <chr>    <fct> <fct>       <dbl>     <dbl>   <dbl>       <dbl>     <dbl>
##  1 HALEAKA… PRIV… MAUI          245      52.7     0         129.      0    
##  2 MALAMAL… PRIV… HAWAII         95      46.3     0          44.0     0    
##  3 ROOTS S… PRIV… MAUI           53      41.5     0          22.0     0    
##  4 ALAKAI … CHAR… KAUAI         130      40       0          52       0    
##  5 KONA PA… CHAR… HAWAII        222      37.4     0          83.0     0    
##  6 MONTESS… PRIV… MAUI          181      35.4     1.7        64.1     3.08 
##  7 KILAUEA… PUBL… KAUAI         312      33       0.3       103.      0.936
##  8 KANUIKA… CHAR… KAUAI         207      32.9     0          68.1     0    
##  9 HANALEI… PUBL… KAUAI         252      29       0          73.1     0    
## 10 KAUAI C… PRIV… KAUAI          73      21.9     0          16.0     0    
## # … with 398 more rows

x %>% arrange(-medical)

## # A tibble: 408 x 8
##    school   type  island enrollment religious medical n_religious n_medical
##    <chr>    <fct> <fct>       <dbl>     <dbl>   <dbl>       <dbl>     <dbl>
##  1 HAILI C… PRIV… HAWAII        117       4.3     4.3       5.03      5.03 
##  2 MONTESS… PRIV… MAUI          181      35.4     1.7      64.1       3.08 
##  3 CHRISTI… PRIV… OAHU          183       4.4     1.6       8.05      2.93 
##  4 HANAHAU… PRIV… OAHU          182       1.6     1.6       2.91      2.91 
##  5 VOYAGER… CHAR… OAHU          189       0.5     1.6       0.945     3.02 
##  6 HALAU K… CHAR… OAHU          132       2.3     1.5       3.04      1.98 
##  7 DORIS T… PRIV… MAUI          145      11.7     1.4      17.0       2.03 
##  8 AIKAHI … PUBL… OAHU          470       2.8     1.1      13.2       5.17 
##  9 HAWAII … PUBL… OAHU           89       0       1.1       0         0.979
## 10 ASSETS … PRIV… OAHU          198       1.5     1         2.97      1.98 
## # … with 398 more rows

x %>% arrange(-n_religious)

## # A tibble: 408 x 8
##    school   type  island enrollment religious medical n_religious n_medical
##    <chr>    <fct> <fct>       <dbl>     <dbl>   <dbl>       <dbl>     <dbl>
##  1 HALEAKA… PRIV… MAUI          245      52.7     0         129.      0    
##  2 HAWAII … CHAR… OAHU         1101      10       0.1       110.      1.10 
##  3 KILAUEA… PUBL… KAUAI         312      33       0.3       103.      0.936
##  4 MYRON B… CHAR… OAHU          519      17.5     0          90.8     0    
##  5 KONA PA… CHAR… HAWAII        222      37.4     0          83.0     0    
##  6 SUNSET … PUBL… OAHU          403      18.9     0          76.2     0    
##  7 KIHEI C… CHAR… MAUI          624      12       0.3        74.9     1.87 
##  8 HANALEI… PUBL… KAUAI         252      29       0          73.1     0    
##  9 KALAMA … PUBL… MAUI          888       7.9     0          70.2     0    
## 10 KANUIKA… CHAR… KAUAI         207      32.9     0          68.1     0    
## # … with 398 more rows

x %>% arrange(-n_medical)

## # A tibble: 408 x 8
##    school   type  island enrollment religious medical n_religious n_medical
##    <chr>    <fct> <fct>       <dbl>     <dbl>   <dbl>       <dbl>     <dbl>
##  1 AIKAHI … PUBL… OAHU          470       2.8     1.1      13.2        5.17
##  2 HAILI C… PRIV… HAWAII        117       4.3     4.3       5.03       5.03
##  3 MAEMAE … PUBL… OAHU          679       0.7     0.7       4.75       4.75
##  4 MID-PAC… PRIV… OAHU         1547       1.4     0.3      21.7        4.64
##  5 MONTESS… PRIV… MAUI          181      35.4     1.7      64.1        3.08
##  6 VOYAGER… CHAR… OAHU          189       0.5     1.6       0.945      3.02
##  7 CHRISTI… PRIV… OAHU          183       4.4     1.6       8.05       2.93
##  8 HANAHAU… PRIV… OAHU          182       1.6     1.6       2.91       2.91
##  9 TRINITY… PRIV… OAHU          290       2.8     1         8.12       2.9 
## 10 KALANI … PUBL… OAHU         1425       0.8     0.2      11.4        2.85
## # … with 398 more rows
…
