Graphing Bean Sprout Respiration with the Hadleyverse | Dripping Data
…
library(tidyr)
library(ggplot2)

Tidying Data

I imported the data and gathered them into long form.

sprouts <- read.csv("../datasets/respiration.csv")
sprouts <- tbl_df(sprouts)
sprouts <- gather(sprouts, "minutes", "distance", 4:7)
sprouts$minutes <- recode(sprouts$minutes, "X5.min" = 5, "X10.min" = 10,
       "X15.min" = 15, "X20.min" = 20)
sprouts

## # A tibble: 680 × 6
##    Teacher Period  Table    Age minutes distance
##     <fctr>  <int> <fctr> <fctr>   <dbl>    <dbl>
## 1    Ching      1      a  Young       5       18
## 2    Ching      1      b  Young       5      150
## 3    Ching      1      c  Young       5       85
## 4    Ching      1      d  Young       5      114
## 5    Ching      1      e  Young       5       NA
## 6    Ching      2      a  Young       5       88
## 7    Ching      2      b  Young       5       59
## 8    Ching      2      c  Young       5       71
## 9    Ching      2      d  Young       5       69
## 10   Ching      2      e  Young       5       NA
## # ... with 670 more rows
…
